{
    "version"           : "0.0.38",
    "name"                  :"Theme",
    "description"           :"Basic theme plugin",
    "namespace"             :"Theme",
    "author"                :"Your name",
    "keywords"              : ["theme", "Ceres", "template"],
    "type"                  :"theme",
    "require"               : [],
    "serviceProvider"       :"Theme\\Providers\\ThemeServiceProvider",
    "dataProviders"         :
    [
        {
            "key"           :"Theme\\Containers\\ThemeContainer",
            "name"          :"Dark background",
            "description"   :"Change the background colour of the Ceres template"
        }
    ]
}